{
    "page": 1,
    "per_page": 15,
    "photos": [
        {
            "id": 5614135,
            "width": 3719,
            "height": 5579,
            "url": "https://www.pexels.com/photo/a-woman-sitting-on-the-couch-5614135/",
            "photographer": "Anna Shvets",
            "photographer_url": "https://www.pexels.com/@shvetsa",
            "photographer_id": 1984515,
            "avg_color": "#777062",
            "src": {
                "original": "https://images.pexels.com/photos/5614135/pexels-photo-5614135.jpeg",
                "large2x": "https://images.pexels.com/photos/5614135/pexels-photo-5614135.jpeg?auto=compress&cs=tinysrgb&dpr=2&h=650&w=940",
                "large": "https://images.pexels.com/photos/5614135/pexels-photo-5614135.jpeg?auto=compress&cs=tinysrgb&h=650&w=940",
                "medium": "https://images.pexels.com/photos/5614135/pexels-photo-5614135.jpeg?auto=compress&cs=tinysrgb&h=350",
                "small": "https://images.pexels.com/photos/5614135/pexels-photo-5614135.jpeg?auto=compress&cs=tinysrgb&h=130",
                "portrait": "https://images.pexels.com/photos/5614135/pexels-photo-5614135.jpeg?auto=compress&cs=tinysrgb&fit=crop&h=1200&w=800",
                "landscape": "https://images.pexels.com/photos/5614135/pexels-photo-5614135.jpeg?auto=compress&cs=tinysrgb&fit=crop&h=627&w=1200",
                "tiny": "https://images.pexels.com/photos/5614135/pexels-photo-5614135.jpeg?auto=compress&cs=tinysrgb&dpr=1&fit=crop&h=200&w=280"
            },
            "liked": false,
            "alt": "A Woman Sitting on the Couch"
        },
        {
            "id": 5615067,
            "width": 5676,
            "height": 3784,
            "url": "https://www.pexels.com/photo/woman-in-white-hijab-using-laptop-computer-5615067/",
            "photographer": "Tima Miroshnichenko",
            "photographer_url": "https://www.pexels.com/@tima-miroshnichenko",
            "photographer_id": 3088726,
            "avg_color": "#645240",
            "src": {
                "original": "https://images.pexels.com/photos/5615067/pexels-photo-5615067.jpeg",
                "large2x": "https://images.pexels.com/photos/5615067/pexels-photo-5615067.jpeg?auto=compress&cs=tinysrgb&dpr=2&h=650&w=940",
                "large": "https://images.pexels.com/photos/5615067/pexels-photo-5615067.jpeg?auto=compress&cs=tinysrgb&h=650&w=940",
                "medium": "https://images.pexels.com/photos/5615067/pexels-photo-5615067.jpeg?auto=compress&cs=tinysrgb&h=350",
                "small": "https://images.pexels.com/photos/5615067/pexels-photo-5615067.jpeg?auto=compress&cs=tinysrgb&h=130",
                "portrait": "https://images.pexels.com/photos/5615067/pexels-photo-5615067.jpeg?auto=compress&cs=tinysrgb&fit=crop&h=1200&w=800",
                "landscape": "https://images.pexels.com/photos/5615067/pexels-photo-5615067.jpeg?auto=compress&cs=tinysrgb&fit=crop&h=627&w=1200",
                "tiny": "https://images.pexels.com/photos/5615067/pexels-photo-5615067.jpeg?auto=compress&cs=tinysrgb&dpr=1&fit=crop&h=200&w=280"
            },
            "liked": false,
            "alt": "Woman in White Hijab Using Laptop Computer"
        },
        {
            "id": 5698417,
            "width": 3927,
            "height": 5890,
            "url": "https://www.pexels.com/photo/man-and-woman-sitting-on-gray-couch-5698417/",
            "photographer": "Tima Miroshnichenko",
            "photographer_url": "https://www.pexels.com/@tima-miroshnichenko",
            "photographer_id": 3088726,
            "avg_color": "#615147",
            "src": {
                "original": "https://images.pexels.com/photos/5698417/pexels-photo-5698417.jpeg",
                "large2x": "https://images.pexels.com/photos/5698417/pexels-photo-5698417.jpeg?auto=compress&cs=tinysrgb&dpr=2&h=650&w=940",
                "large": "https://images.pexels.com/photos/5698417/pexels-photo-5698417.jpeg?auto=compress&cs=tinysrgb&h=650&w=940",
                "medium": "https://images.pexels.com/photos/5698417/pexels-photo-5698417.jpeg?auto=compress&cs=tinysrgb&h=350",
                "small": "https://images.pexels.com/photos/5698417/pexels-photo-5698417.jpeg?auto=compress&cs=tinysrgb&h=130",
                "portrait": "https://images.pexels.com/photos/5698417/pexels-photo-5698417.jpeg?auto=compress&cs=tinysrgb&fit=crop&h=1200&w=800",
                "landscape": "https://images.pexels.com/photos/5698417/pexels-photo-5698417.jpeg?auto=compress&cs=tinysrgb&fit=crop&h=627&w=1200",
                "tiny": "https://images.pexels.com/photos/5698417/pexels-photo-5698417.jpeg?auto=compress&cs=tinysrgb&dpr=1&fit=crop&h=200&w=280"
            },
            "liked": false,
            "alt": "Man and Woman Sitting on Gray Couch"
        },
        {
            "id": 4103247,
            "width": 6240,
            "height": 4160,
            "url": "https://www.pexels.com/photo/a-boy-studying-online-using-laptop-4103247/",
            "photographer": "Valery",
            "photographer_url": "https://www.pexels.com/@valery-697423",
            "photographer_id": 697423,
            "avg_color": "#A9927E",
            "src": {
                "original": "https://images.pexels.com/photos/4103247/pexels-photo-4103247.jpeg",
                "large2x": "https://images.pexels.com/photos/4103247/pexels-photo-4103247.jpeg?auto=compress&cs=tinysrgb&dpr=2&h=650&w=940",
                "large": "https://images.pexels.com/photos/4103247/pexels-photo-4103247.jpeg?auto=compress&cs=tinysrgb&h=650&w=940",
                "medium": "https://images.pexels.com/photos/4103247/pexels-photo-4103247.jpeg?auto=compress&cs=tinysrgb&h=350",
                "small": "https://images.pexels.com/photos/4103247/pexels-photo-4103247.jpeg?auto=compress&cs=tinysrgb&h=130",
                "portrait": "https://images.pexels.com/photos/4103247/pexels-photo-4103247.jpeg?auto=compress&cs=tinysrgb&fit=crop&h=1200&w=800",
                "landscape": "https://images.pexels.com/photos/4103247/pexels-photo-4103247.jpeg?auto=compress&cs=tinysrgb&fit=crop&h=627&w=1200",
                "tiny": "https://images.pexels.com/photos/4103247/pexels-photo-4103247.jpeg?auto=compress&cs=tinysrgb&dpr=1&fit=crop&h=200&w=280"
            },
            "liked": false,
            "alt": "A Boy Studying Online Using Laptop"
        },
        {
            "id": 3401402,
            "width": 5364,
            "height": 3994,
            "url": "https://www.pexels.com/photo/man-in-brown-button-up-shirt-holding-black-microphone-3401402/",
            "photographer": "Agung Pandit Wiguna",
            "photographer_url": "https://www.pexels.com/@panditwiguna",
            "photographer_id": 305072,
            "avg_color": "#69635E",
            "src": {
                "original": "https://images.pexels.com/photos/3401402/pexels-photo-3401402.jpeg",
                "large2x": "https://images.pexels.com/photos/3401402/pexels-photo-3401402.jpeg?auto=compress&cs=tinysrgb&dpr=2&h=650&w=940",
                "large": "https://images.pexels.com/photos/3401402/pexels-photo-3401402.jpeg?auto=compress&cs=tinysrgb&h=650&w=940",
                "medium": "https://images.pexels.com/photos/3401402/pexels-photo-3401402.jpeg?auto=compress&cs=tinysrgb&h=350",
                "small": "https://images.pexels.com/photos/3401402/pexels-photo-3401402.jpeg?auto=compress&cs=tinysrgb&h=130",
                "portrait": "https://images.pexels.com/photos/3401402/pexels-photo-3401402.jpeg?auto=compress&cs=tinysrgb&fit=crop&h=1200&w=800",
                "landscape": "https://images.pexels.com/photos/3401402/pexels-photo-3401402.jpeg?auto=compress&cs=tinysrgb&fit=crop&h=627&w=1200",
                "tiny": "https://images.pexels.com/photos/3401402/pexels-photo-3401402.jpeg?auto=compress&cs=tinysrgb&dpr=1&fit=crop&h=200&w=280"
            },
            "liked": false,
            "alt": "Man in Brown Button Up Shirt Holding Black Microphone"
        },
        {
            "id": 238118,
            "width": 4000,
            "height": 2682,
            "url": "https://www.pexels.com/photo/gray-laptop-computer-238118/",
            "photographer": "JÉSHOOTS",
            "photographer_url": "https://www.pexels.com/@jeshoots",
            "photographer_id": 2662,
            "avg_color": "#D0D0D7",
            "src": {
                "original": "https://images.pexels.com/photos/238118/pexels-photo-238118.jpeg",
                "large2x": "https://images.pexels.com/photos/238118/pexels-photo-238118.jpeg?auto=compress&cs=tinysrgb&dpr=2&h=650&w=940",
                "large": "https://images.pexels.com/photos/238118/pexels-photo-238118.jpeg?auto=compress&cs=tinysrgb&h=650&w=940",
                "medium": "https://images.pexels.com/photos/238118/pexels-photo-238118.jpeg?auto=compress&cs=tinysrgb&h=350",
                "small": "https://images.pexels.com/photos/238118/pexels-photo-238118.jpeg?auto=compress&cs=tinysrgb&h=130",
                "portrait": "https://images.pexels.com/photos/238118/pexels-photo-238118.jpeg?auto=compress&cs=tinysrgb&fit=crop&h=1200&w=800",
                "landscape": "https://images.pexels.com/photos/238118/pexels-photo-238118.jpeg?auto=compress&cs=tinysrgb&fit=crop&h=627&w=1200",
                "tiny": "https://images.pexels.com/photos/238118/pexels-photo-238118.jpeg?auto=compress&cs=tinysrgb&dpr=1&fit=crop&h=200&w=280"
            },
            "liked": false,
            "alt": "Gray Laptop Computer"
        },
        {
            "id": 1229861,
            "width": 6000,
            "height": 4000,
            "url": "https://www.pexels.com/photo/silver-and-black-laptop-computer-1229861/",
            "photographer": "Hasan Albari",
            "photographer_url": "https://www.pexels.com/@hasanalbari",
            "photographer_id": 162689,
            "avg_color": "#373445",
            "src": {
                "original": "https://images.pexels.com/photos/1229861/pexels-photo-1229861.jpeg",
                "large2x": "https://images.pexels.com/photos/1229861/pexels-photo-1229861.jpeg?auto=compress&cs=tinysrgb&dpr=2&h=650&w=940",
                "large": "https://images.pexels.com/photos/1229861/pexels-photo-1229861.jpeg?auto=compress&cs=tinysrgb&h=650&w=940",
                "medium": "https://images.pexels.com/photos/1229861/pexels-photo-1229861.jpeg?auto=compress&cs=tinysrgb&h=350",
                "small": "https://images.pexels.com/photos/1229861/pexels-photo-1229861.jpeg?auto=compress&cs=tinysrgb&h=130",
                "portrait": "https://images.pexels.com/photos/1229861/pexels-photo-1229861.jpeg?auto=compress&cs=tinysrgb&fit=crop&h=1200&w=800",
                "landscape": "https://images.pexels.com/photos/1229861/pexels-photo-1229861.jpeg?auto=compress&cs=tinysrgb&fit=crop&h=627&w=1200",
                "tiny": "https://images.pexels.com/photos/1229861/pexels-photo-1229861.jpeg?auto=compress&cs=tinysrgb&dpr=1&fit=crop&h=200&w=280"
            },
            "liked": false,
            "alt": "Silver and Black Laptop Computer"
        },
        {
            "id": 18105,
            "width": 5184,
            "height": 3456,
            "url": "https://www.pexels.com/photo/macbook-pro-near-iphone-and-apple-fruit-18105/",
            "photographer": "karsten madsen",
            "photographer_url": "https://www.pexels.com/@morningtrain",
            "photographer_id": 1540,
            "avg_color": "#A4A2A2",
            "src": {
                "original": "https://images.pexels.com/photos/18105/pexels-photo.jpg",
                "large2x": "https://images.pexels.com/photos/18105/pexels-photo.jpg?auto=compress&cs=tinysrgb&dpr=2&h=650&w=940",
                "large": "https://images.pexels.com/photos/18105/pexels-photo.jpg?auto=compress&cs=tinysrgb&h=650&w=940",
                "medium": "https://images.pexels.com/photos/18105/pexels-photo.jpg?auto=compress&cs=tinysrgb&h=350",
                "small": "https://images.pexels.com/photos/18105/pexels-photo.jpg?auto=compress&cs=tinysrgb&h=130",
                "portrait": "https://images.pexels.com/photos/18105/pexels-photo.jpg?auto=compress&cs=tinysrgb&fit=crop&h=1200&w=800",
                "landscape": "https://images.pexels.com/photos/18105/pexels-photo.jpg?auto=compress&cs=tinysrgb&fit=crop&h=627&w=1200",
                "tiny": "https://images.pexels.com/photos/18105/pexels-photo.jpg?auto=compress&cs=tinysrgb&dpr=1&fit=crop&h=200&w=280"
            },
            "liked": false,
            "alt": "Macbook Pro Near Iphone and Apple Fruit"
        },
        {
            "id": 2047905,
            "width": 3648,
            "height": 5472,
            "url": "https://www.pexels.com/photo/semi-opened-laptop-computer-turned-on-on-table-2047905/",
            "photographer": "Junior Teixeira",
            "photographer_url": "https://www.pexels.com/@junior-teixeira-1064069",
            "photographer_id": 1064069,
            "avg_color": "#110909",
            "src": {
                "original": "https://images.pexels.com/photos/2047905/pexels-photo-2047905.jpeg",
                "large2x": "https://images.pexels.com/photos/2047905/pexels-photo-2047905.jpeg?auto=compress&cs=tinysrgb&dpr=2&h=650&w=940",
                "large": "https://images.pexels.com/photos/2047905/pexels-photo-2047905.jpeg?auto=compress&cs=tinysrgb&h=650&w=940",
                "medium": "https://images.pexels.com/photos/2047905/pexels-photo-2047905.jpeg?auto=compress&cs=tinysrgb&h=350",
                "small": "https://images.pexels.com/photos/2047905/pexels-photo-2047905.jpeg?auto=compress&cs=tinysrgb&h=130",
                "portrait": "https://images.pexels.com/photos/2047905/pexels-photo-2047905.jpeg?auto=compress&cs=tinysrgb&fit=crop&h=1200&w=800",
                "landscape": "https://images.pexels.com/photos/2047905/pexels-photo-2047905.jpeg?auto=compress&cs=tinysrgb&fit=crop&h=627&w=1200",
                "tiny": "https://images.pexels.com/photos/2047905/pexels-photo-2047905.jpeg?auto=compress&cs=tinysrgb&dpr=1&fit=crop&h=200&w=280"
            },
            "liked": false,
            "alt": "Semi-opened Laptop Computer Turned-on on Table"
        },
        {
            "id": 812264,
            "width": 5996,
            "height": 3980,
            "url": "https://www.pexels.com/photo/photo-of-a-macbook-air-812264/",
            "photographer": "Tuur  Tisseghem",
            "photographer_url": "https://www.pexels.com/@tuurt",
            "photographer_id": 43262,
            "avg_color": "#90908E",
            "src": {
                "original": "https://images.pexels.com/photos/812264/pexels-photo-812264.jpeg",
                "large2x": "https://images.pexels.com/photos/812264/pexels-photo-812264.jpeg?auto=compress&cs=tinysrgb&dpr=2&h=650&w=940",
                "large": "https://images.pexels.com/photos/812264/pexels-photo-812264.jpeg?auto=compress&cs=tinysrgb&h=650&w=940",
                "medium": "https://images.pexels.com/photos/812264/pexels-photo-812264.jpeg?auto=compress&cs=tinysrgb&h=350",
                "small": "https://images.pexels.com/photos/812264/pexels-photo-812264.jpeg?auto=compress&cs=tinysrgb&h=130",
                "portrait": "https://images.pexels.com/photos/812264/pexels-photo-812264.jpeg?auto=compress&cs=tinysrgb&fit=crop&h=1200&w=800",
                "landscape": "https://images.pexels.com/photos/812264/pexels-photo-812264.jpeg?auto=compress&cs=tinysrgb&fit=crop&h=627&w=1200",
                "tiny": "https://images.pexels.com/photos/812264/pexels-photo-812264.jpeg?auto=compress&cs=tinysrgb&dpr=1&fit=crop&h=200&w=280"
            },
            "liked": false,
            "alt": "Photo of a Macbook Air"
        },
        {
            "id": 1006293,
            "width": 6000,
            "height": 4000,
            "url": "https://www.pexels.com/photo/photo-of-laptop-near-plant-1006293/",
            "photographer": "Lisa Fotios",
            "photographer_url": "https://www.pexels.com/@fotios-photos",
            "photographer_id": 26735,
            "avg_color": "#C1BDC0",
            "src": {
                "original": "https://images.pexels.com/photos/1006293/pexels-photo-1006293.jpeg",
                "large2x": "https://images.pexels.com/photos/1006293/pexels-photo-1006293.jpeg?auto=compress&cs=tinysrgb&dpr=2&h=650&w=940",
                "large": "https://images.pexels.com/photos/1006293/pexels-photo-1006293.jpeg?auto=compress&cs=tinysrgb&h=650&w=940",
                "medium": "https://images.pexels.com/photos/1006293/pexels-photo-1006293.jpeg?auto=compress&cs=tinysrgb&h=350",
                "small": "https://images.pexels.com/photos/1006293/pexels-photo-1006293.jpeg?auto=compress&cs=tinysrgb&h=130",
                "portrait": "https://images.pexels.com/photos/1006293/pexels-photo-1006293.jpeg?auto=compress&cs=tinysrgb&fit=crop&h=1200&w=800",
                "landscape": "https://images.pexels.com/photos/1006293/pexels-photo-1006293.jpeg?auto=compress&cs=tinysrgb&fit=crop&h=627&w=1200",
                "tiny": "https://images.pexels.com/photos/1006293/pexels-photo-1006293.jpeg?auto=compress&cs=tinysrgb&dpr=1&fit=crop&h=200&w=280"
            },
            "liked": false,
            "alt": "Photo of Laptop Near Plant"
        },
        {
            "id": 7974,
            "width": 5760,
            "height": 3840,
            "url": "https://www.pexels.com/photo/silver-laptop-and-white-cup-on-table-7974/",
            "photographer": "Life Of Pix",
            "photographer_url": "https://www.pexels.com/@life-of-pix",
            "photographer_id": 2660,
            "avg_color": "#82807F",
            "src": {
                "original": "https://images.pexels.com/photos/7974/pexels-photo.jpg",
                "large2x": "https://images.pexels.com/photos/7974/pexels-photo.jpg?auto=compress&cs=tinysrgb&dpr=2&h=650&w=940",
                "large": "https://images.pexels.com/photos/7974/pexels-photo.jpg?auto=compress&cs=tinysrgb&h=650&w=940",
                "medium": "https://images.pexels.com/photos/7974/pexels-photo.jpg?auto=compress&cs=tinysrgb&h=350",
                "small": "https://images.pexels.com/photos/7974/pexels-photo.jpg?auto=compress&cs=tinysrgb&h=130",
                "portrait": "https://images.pexels.com/photos/7974/pexels-photo.jpg?auto=compress&cs=tinysrgb&fit=crop&h=1200&w=800",
                "landscape": "https://images.pexels.com/photos/7974/pexels-photo.jpg?auto=compress&cs=tinysrgb&fit=crop&h=627&w=1200",
                "tiny": "https://images.pexels.com/photos/7974/pexels-photo.jpg?auto=compress&cs=tinysrgb&dpr=1&fit=crop&h=200&w=280"
            },
            "liked": false,
            "alt": "Silver Laptop and White Cup on Table"
        },
        {
            "id": 842548,
            "width": 5760,
            "height": 3840,
            "url": "https://www.pexels.com/photo/man-holding-mug-in-front-of-laptop-842548/",
            "photographer": "Andrea Piacquadio",
            "photographer_url": "https://www.pexels.com/@olly",
            "photographer_id": 224453,
            "avg_color": "#703B29",
            "src": {
                "original": "https://images.pexels.com/photos/842548/pexels-photo-842548.jpeg",
                "large2x": "https://images.pexels.com/photos/842548/pexels-photo-842548.jpeg?auto=compress&cs=tinysrgb&dpr=2&h=650&w=940",
                "large": "https://images.pexels.com/photos/842548/pexels-photo-842548.jpeg?auto=compress&cs=tinysrgb&h=650&w=940",
                "medium": "https://images.pexels.com/photos/842548/pexels-photo-842548.jpeg?auto=compress&cs=tinysrgb&h=350",
                "small": "https://images.pexels.com/photos/842548/pexels-photo-842548.jpeg?auto=compress&cs=tinysrgb&h=130",
                "portrait": "https://images.pexels.com/photos/842548/pexels-photo-842548.jpeg?auto=compress&cs=tinysrgb&fit=crop&h=1200&w=800",
                "landscape": "https://images.pexels.com/photos/842548/pexels-photo-842548.jpeg?auto=compress&cs=tinysrgb&fit=crop&h=627&w=1200",
                "tiny": "https://images.pexels.com/photos/842548/pexels-photo-842548.jpeg?auto=compress&cs=tinysrgb&dpr=1&fit=crop&h=200&w=280"
            },
            "liked": false,
            "alt": "Man Holding Mug in Front of Laptop"
        },
        {
            "id": 129208,
            "width": 6016,
            "height": 4016,
            "url": "https://www.pexels.com/photo/macbook-pro-129208/",
            "photographer": "Nao Triponez",
            "photographer_url": "https://www.pexels.com/@natri",
            "photographer_id": 34601,
            "avg_color": "#262627",
            "src": {
                "original": "https://images.pexels.com/photos/129208/pexels-photo-129208.jpeg",
                "large2x": "https://images.pexels.com/photos/129208/pexels-photo-129208.jpeg?auto=compress&cs=tinysrgb&dpr=2&h=650&w=940",
                "large": "https://images.pexels.com/photos/129208/pexels-photo-129208.jpeg?auto=compress&cs=tinysrgb&h=650&w=940",
                "medium": "https://images.pexels.com/photos/129208/pexels-photo-129208.jpeg?auto=compress&cs=tinysrgb&h=350",
                "small": "https://images.pexels.com/photos/129208/pexels-photo-129208.jpeg?auto=compress&cs=tinysrgb&h=130",
                "portrait": "https://images.pexels.com/photos/129208/pexels-photo-129208.jpeg?auto=compress&cs=tinysrgb&fit=crop&h=1200&w=800",
                "landscape": "https://images.pexels.com/photos/129208/pexels-photo-129208.jpeg?auto=compress&cs=tinysrgb&fit=crop&h=627&w=1200",
                "tiny": "https://images.pexels.com/photos/129208/pexels-photo-129208.jpeg?auto=compress&cs=tinysrgb&dpr=1&fit=crop&h=200&w=280"
            },
            "liked": false,
            "alt": "Macbook Pro"
        },
        {
            "id": 1029757,
            "width": 7842,
            "height": 5137,
            "url": "https://www.pexels.com/photo/photo-of-imac-near-macbook-1029757/",
            "photographer": "Format",
            "photographer_url": "https://www.pexels.com/@format-380633",
            "photographer_id": 380633,
            "avg_color": "#B1B1B3",
            "src": {
                "original": "https://images.pexels.com/photos/1029757/pexels-photo-1029757.jpeg",
                "large2x": "https://images.pexels.com/photos/1029757/pexels-photo-1029757.jpeg?auto=compress&cs=tinysrgb&dpr=2&h=650&w=940",
                "large": "https://images.pexels.com/photos/1029757/pexels-photo-1029757.jpeg?auto=compress&cs=tinysrgb&h=650&w=940",
                "medium": "https://images.pexels.com/photos/1029757/pexels-photo-1029757.jpeg?auto=compress&cs=tinysrgb&h=350",
                "small": "https://images.pexels.com/photos/1029757/pexels-photo-1029757.jpeg?auto=compress&cs=tinysrgb&h=130",
                "portrait": "https://images.pexels.com/photos/1029757/pexels-photo-1029757.jpeg?auto=compress&cs=tinysrgb&fit=crop&h=1200&w=800",
                "landscape": "https://images.pexels.com/photos/1029757/pexels-photo-1029757.jpeg?auto=compress&cs=tinysrgb&fit=crop&h=627&w=1200",
                "tiny": "https://images.pexels.com/photos/1029757/pexels-photo-1029757.jpeg?auto=compress&cs=tinysrgb&dpr=1&fit=crop&h=200&w=280"
            },
            "liked": false,
            "alt": "Photo of Imac Near Macbook"
        }
    ],
    "total_results": 8000,
    "next_page": "https://api.pexels.com/v1/search/?page=2&per_page=15&query=laptos"
}